module pfa-go

go 1.19

require (
	github.com/go-sql-driver/mysql v1.6.0
	github.com/google/uuid v1.3.0
	github.com/rabbitmq/amqp091-go v1.5.0
	github.com/stretchr/testify v1.8.0
)

require (
	github.com/davecgh/go-spew v1.1.1 // indirect
	github.com/pmezard/go-difflib v1.0.0 // indirect
	gopkg.in/yaml.v3 v3.0.1 // indirect
)
